13 Visualizing geolocation data – Data Wrangling and Visualization in the Tidyverse
…
outfile <- "data/moveVis.gif"

if (!file.exists(outfile)) {
  animate_frames(frames, out_file = outfile)
} else {
  message("File already exists, skipping animation rendering.")
}

image_read() from the magick package can be used to display gifs (also works in your Viewer in RStudio!).

img <- image_read("data/moveVis.gif")
print(img)

# A tibble: 117 × 7
   format width height colorspace matte filesize density
   <chr>  <int>  <int> <chr>      <lgl>    <int> <chr>  
 1 GIF      700    700 sRGB       FALSE        0 72x72  
 2 GIF      700    700 sRGB       FALSE        0 72x72  
 3 GIF      700    700 sRGB       FALSE        0 72x72  
 4 GIF      700    700 sRGB       FALSE        0 72x72  
 5 GIF      700    700 sRGB       FALSE        0 72x72  
 6 GIF      700    700 sRGB       FALSE        0 72x72  
 7 GIF      700    700 sRGB       FALSE        0 72x72  
 8 GIF      700    700 sRGB       FALSE        0 72x72  
 9 GIF      700    700 sRGB       FALSE        0 72x72  
10 GIF      700    700 sRGB       FALSE        0 72x72  
# ℹ 107 more rows
…
