6 How to Create a Reproducible Example (Reprex) – Data Wrangling and Visualization in the Tidyverse
…
Rows: 24
Columns: 3
$ x <dbl> 0.5855288, 0.7094660, -0.1093033, -0.4534972, 0.6058875, -1.8179560,…
$ y <chr> "group_1", "group_2", "group_1", "group_2", "group_1", "group_2", "g…
$ z <fct> level_1, level_2, level_3, level_1, level_2, level_3, level_1, level…

d %>% print()

# A tibble: 24 × 3
        x y       z      
    <dbl> <chr>   <fct>  
 1  0.586 group_1 level_1
 2  0.709 group_2 level_2
 3 -0.109 group_1 level_3
 4 -0.453 group_2 level_1
 5  0.606 group_1 level_2
 6 -1.82  group_2 level_3
 7  0.630 group_1 level_1
 8 -0.276 group_2 level_2
 9 -0.284 group_1 level_3
10 -0.919 group_2 level_1
# ℹ 14 more rows
…
