Data Wrangling and Visualization in the Tidyverse - 12 Simulations
…
Now we can use this function to simulate a data set with any properties

get_data(1,
         n_obs <- 1000,
         means <- c(4, 6, 10), 
         sigma <- diag(3),
         b <- c(100, 2, 5, 1),
         e <- 10)

# A tibble: 1,000 × 6
       s    x0    x1    x2    x3     y
   <dbl> <dbl> <dbl> <dbl> <dbl> <dbl>
 1     1     1  2.97  6.10  9.42  147.
 2     1     1  3.56  5.75  9.32  145.
 3     1     1  3.74  5.89  9.97  130.
 4     1     1  4.83  5.35  8.67  142.
 5     1     1  3.83  5.70  9.19  151.
 6     1     1  4.40  6.46  9.95  164.
 7     1     1  3.79  6.96  9.77  163.
 8     1     1  4.04  5.21 11.9   163.
 9     1     1  4.29  7.14 11.1   142.
10     1     1  4.53  5.95  9.21  148.
# ℹ 990 more rows
…
