Data Wrangling in the Tidyverse - 4 Parallel Processing
…
2.04 sec elapsed

Need a demo for how to handle random numbers. No error or warning here but %dorng% is recommended I think?

2.04 sec elapsed

4.1 tune_grid() in tidymodels

Set up data, resamples, recipe, tuning grid. Will do 3x 10-fold CV to tune an elasticnet glm with a sample size of 1000 and 30 features

First, let’s benchmark without parallel processing. tune_grid() (and fit_resamples()) default is to allow parallel processing so have to explicitly turn it off using control_grid(). You will NOT do this. It is only to show the benefits of parallel processing.

# Tuning results
# 10-fold cross-validation repeated 3 times using stratification 
# A tibble: 30 × 5
   splits            id      id2    .metrics             .notes          
   <list>            <chr>   <chr>  <list>               <list>          
 1 <split [900/100]> Repeat1 Fold01 <tibble [2,200 × 6]> <tibble [0 × 3]>
 2 <split [900/100]> Repeat1 Fold02 <tibble [2,200 × 6]> <tibble [0 × 3]>
 3 <split [900/100]> Repeat1 Fold03 <tibble [2,200 × 6]> <tibble [0 × 3]>
 4 <split [900/100]> Repeat1 Fold04 <tibble [2,200 × 6]> <tibble [0 × 3]>
 5 <split [900/100]> Repeat1 Fold05 <tibble [2,200 × 6]> <tibble [0 × 3]>
 6 <split [900/100]> Repeat1 Fold06 <tibble [2,200 × 6]> <tibble [0 × 3]>
 7 <split [900/100]> Repeat1 Fold07 <tibble [2,200 × 6]> <tibble [0 × 3]>
 8 <split [900/100]> Repeat1 Fold08 <tibble [2,200 × 6]> <tibble [0 × 3]>
 9 <split [900/100]> Repeat1 Fold09 <tibble [2,200 × 6]> <tibble [0 × 3]>
10 <split [900/100]> Repeat1 Fold10 <tibble [2,200 × 6]> <tibble [0 × 3]>
# ℹ 20 more rows

66.01 sec elapsed

Now allow use of parallel processing (the default). No plan is needed here (consistent with findings for foreach()). Yay!

# Tuning results
# 10-fold cross-validation repeated 3 times using stratification 
# A tibble: 30 × 5
   splits            id      id2    .metrics             .notes          
   <list>            <chr>   <chr>  <list>               <list>          
 1 <split [900/100]> Repeat1 Fold01 <tibble [2,200 × 6]> <tibble [0 × 3]>
 2 <split [900/100]> Repeat1 Fold02 <tibble [2,200 × 6]> <tibble [0 × 3]>
 3 <split [900/100]> Repeat1 Fold03 <tibble [2,200 × 6]> <tibble [0 × 3]>
 4 <split [900/100]> Repeat1 Fold04 <tibble [2,200 × 6]> <tibble [0 × 3]>
 5 <split [900/100]> Repeat1 Fold05 <tibble [2,200 × 6]> <tibble [0 × 3]>
 6 <split [900/100]> Repeat1 Fold06 <tibble [2,200 × 6]> <tibble [0 × 3]>
 7 <split [900/100]> Repeat1 Fold07 <tibble [2,200 × 6]> <tibble [0 × 3]>
 8 <split [900/100]> Repeat1 Fold08 <tibble [2,200 × 6]> <tibble [0 × 3]>
 9 <split [900/100]> Repeat1 Fold09 <tibble [2,200 × 6]> <tibble [0 × 3]>
10 <split [900/100]> Repeat1 Fold10 <tibble [2,200 × 6]> <tibble [0 × 3]>
# ℹ 20 more rows
…
